{
  "extends" : [
    "tslint:recommended"
  ],
  "rules": {
    "prefer-const": false,
    "max-line-length": [true, 200],
    "no-angle-bracket-type-assertion": false,
    "quotemark": [true, "single"],
    "forin": false,
    "interface-name": [false],
    "no-console": [false],
    "no-namespace": [true, "allow-declarations"],
    "trailing-comma": [
      true,
      "never"
    ],
    "variable-name": [
      true,
      "ban-keywords",
      "check-format",
      "allow-pascal-case",
      "allow-leading-underscore"
    ]
  }
}
